%YAML 1.1
%TAG !u! tag:unity3d.com,2011:
--- !u!1045 &1
EditorBuildSettings:
  m_ObjectHideFlags: 0
  serializedVersion: 2
  m_Scenes:
  - enabled: 1
    path: Assets/Scenes/Entry.unity
    guid: 7a54f9cbc3741a049910aaf958c24f3c
  - enabled: 1
    path: Assets/Scenes/Main.unity
    guid: 99c9720ab356a0642a771bea13969a05
  m_configObjects: {}
